module github.com/naiba/nezha

go 1.18

require (
	code.cloudfoundry.org/bytefmt v0.0.0-20211005130812-5bb3c17173e5
	github.com/AlecAivazis/survey/v2 v2.3.5
	github.com/BurntSushi/toml v1.1.0
	github.com/Erope/goss v0.0.0-20211230093305-df3c03fd1ed4
	github.com/artdarek/go-unzip v1.0.0
	github.com/blang/semver v3.5.1+incompatible
	github.com/creack/pty v1.1.18
	github.com/gin-contrib/pprof v1.3.0
	github.com/gin-gonic/gin v1.8.1
	github.com/go-ping/ping v1.1.0
	github.com/golang/protobuf v1.5.2
	github.com/google/go-github v17.0.0+incompatible
	github.com/gorilla/websocket v1.5.0
	github.com/hashicorp/go-uuid v1.0.3
	github.com/iamacarpet/go-winpty v1.0.4
	github.com/jinzhu/copier v0.3.5
	github.com/json-iterator/go v1.1.12
	github.com/nicksnyder/go-i18n/v2 v2.2.0
	github.com/ory/graceful v0.1.2
	github.com/p14yground/go-github-selfupdate v0.0.0-20220205132106-76a6d59b925b
	github.com/patrickmn/go-cache v2.1.0+incompatible
	github.com/robfig/cron/v3 v3.0.1
	github.com/shirou/gopsutil/v3 v3.22.5
	github.com/spf13/pflag v1.0.5
	github.com/spf13/viper v1.12.0
	github.com/stretchr/testify v1.7.5
	github.com/xanzy/go-gitlab v0.68.0
	golang.org/x/crypto v0.0.0-20220622213112-05595931fe9d
	golang.org/x/oauth2 v0.0.0-20220622183110-fd043fe589d2
	golang.org/x/sync v0.0.0-20220601150217-0de741cfad7f
	golang.org/x/text v0.3.7
	google.golang.org/grpc v1.47.0
	google.golang.org/protobuf v1.28.0
	gopkg.in/yaml.v2 v2.4.0
	gorm.io/driver/sqlite v1.3.4
	gorm.io/gorm v1.23.6
)

require (
	github.com/davecgh/go-spew v1.1.1 // indirect
	github.com/fsnotify/fsnotify v1.5.4 // indirect
	github.com/gin-contrib/sse v0.1.0 // indirect
	github.com/go-ole/go-ole v1.2.6 // indirect
	github.com/go-playground/locales v0.14.0 // indirect
	github.com/go-playground/universal-translator v0.18.0 // indirect
	github.com/go-playground/validator/v10 v10.10.0 // indirect
	github.com/goccy/go-json v0.9.7 // indirect
	github.com/google/go-querystring v1.1.0 // indirect
	github.com/google/uuid v1.3.0 // indirect
	github.com/hashicorp/go-cleanhttp v0.5.2 // indirect
	github.com/hashicorp/go-retryablehttp v0.7.1 // indirect
	github.com/hashicorp/hcl v1.0.0 // indirect
	github.com/inconshreveable/go-update v0.0.0-20160112193335-8152e7eb6ccf // indirect
	github.com/jinzhu/inflection v1.0.0 // indirect
	github.com/jinzhu/now v1.1.5 // indirect
	github.com/kballard/go-shellquote v0.0.0-20180428030007-95032a82bc51 // indirect
	github.com/leodido/go-urn v1.2.1 // indirect
	github.com/lufia/plan9stats v0.0.0-20211012122336-39d0f177ccd0 // indirect
	github.com/magiconair/properties v1.8.6 // indirect
	github.com/mattn/go-colorable v0.1.12 // indirect
	github.com/mattn/go-isatty v0.0.14 // indirect
	github.com/mattn/go-sqlite3 v1.14.12 // indirect
	github.com/mgutz/ansi v0.0.0-20170206155736-9520e82c474b // indirect
	github.com/mitchellh/mapstructure v1.5.0 // indirect
	github.com/modern-go/concurrent v0.0.0-20180306012644-bacd9c7ef1dd // indirect
	github.com/modern-go/reflect2 v1.0.2 // indirect
	github.com/pelletier/go-toml v1.9.5 // indirect
	github.com/pelletier/go-toml/v2 v2.0.1 // indirect
	github.com/pkg/errors v0.9.1 // indirect
	github.com/pmezard/go-difflib v1.0.0 // indirect
	github.com/power-devops/perfstat v0.0.0-20210106213030-5aafc221ea8c // indirect
	github.com/spf13/afero v1.8.2 // indirect
	github.com/spf13/cast v1.5.0 // indirect
	github.com/spf13/jwalterweatherman v1.1.0 // indirect
	github.com/subosito/gotenv v1.3.0 // indirect
	github.com/tcnksm/go-gitconfig v0.1.2 // indirect
	github.com/tklauser/go-sysconf v0.3.10 // indirect
	github.com/tklauser/numcpus v0.4.0 // indirect
	github.com/ugorji/go/codec v1.2.7 // indirect
	github.com/ulikunitz/xz v0.5.10 // indirect
	github.com/yusufpapurcu/wmi v1.2.2 // indirect
	golang.org/x/net v0.0.0-20220520000938-2e3eb7b945c2 // indirect
	golang.org/x/sys v0.0.0-20220520151302-bc2c85ada10a // indirect
	golang.org/x/term v0.0.0-20210927222741-03fcf44c2211 // indirect
	golang.org/x/time v0.0.0-20220411224347-583f2d630306 // indirect
	google.golang.org/appengine v1.6.7 // indirect
	google.golang.org/genproto v0.0.0-20220519153652-3a47de7e79bd // indirect
	gopkg.in/ini.v1 v1.66.4 // indirect
	gopkg.in/yaml.v3 v3.0.1 // indirect
)
